[
    {
        "id": 1,
        "GKHMOCFIGDF": true,
        "JNKDNJFOOKO": "Gcg_Table_Md_Battle",
        "KJAHGDEODCP": "Gcg_Table_Md_Battle_Mobile"
    },
    {
        "id": 2,
        "GKHMOCFIGDF": true,
        "JNKDNJFOOKO": "Gcg_Table_Md_Dice",
        "KJAHGDEODCP": "Gcg_Table_Md_Dice"
    },
    {
        "id": 3,
        "JNKDNJFOOKO": "Gcg_Table_Ly_Battle",
        "KJAHGDEODCP": "Gcg_Table_Ly_Battle_Mobile"
    },
    {
        "id": 4,
        "JNKDNJFOOKO": "Gcg_Table_Ly_Dice",
        "KJAHGDEODCP": "Gcg_Table_Ly_Dice"
    },
    {
        "id": 5,
        "JNKDNJFOOKO": "Gcg_Table_Dq_Battle",
        "KJAHGDEODCP": "Gcg_Table_Dq_Battle_Mobile"
    },
    {
        "id": 6,
        "JNKDNJFOOKO": "Gcg_Table_Dq_Dice",
        "KJAHGDEODCP": "Gcg_Table_Dq_Dice"
    },
    {
        "id": 7,
        "JNKDNJFOOKO": "Gcg_Table_Xm_Battle",
        "KJAHGDEODCP": "Gcg_Table_Xm_Battle_Mobile"
    },
    {
        "id": 8,
        "JNKDNJFOOKO": "Gcg_Table_Xm_Dice",
        "KJAHGDEODCP": "Gcg_Table_Xm_Dice"
    }
]