[
  {
    "grid": {
      "(0, 0, 20)": [
        233100004,
        233100003
      ]
    }
  },
  {
    "grid": {
      "(0, 0, 40)": [
        233100001
      ]
    }
  },
  {
    "grid": {
      "(0, 0, 250)": [
        233100002
      ]
    }
  },
  {
    "grid": {
      "(0, 0, 1000)": [
        233100003
      ]
    }
  },
  {
    "grid": {}
  },
  {
    "grid": {}
  }
]