{
    "common": {
        "effectAttachShape": {
            "$type": "ConfigEffectAttachSkinnedMesh",
            "mesh": "EffectMesh"
        },
        "mass": 40.0,
        "height": 0.8999999761581421,
        "modelHeight": 0.8999999761581421,
        "affectedByWorld": true,
        "checkInSurface": true,
        "useGrassDisplacement": true,
        "clearAnimatorOnSetLightDeactive": true,
        "clearAIOnSetLightDeactive": true,
        "BHFDMMENDCG": true
    },
    "model": {
        "bornEffect": "",
        "attachEffect": "",
        "GAJBLHEGNNM": false
    },
    "dither": {
        "showDitherDuration": 2.0
    },
    "combat": {
        "property": {
            "endureType": "Monster_Slime",
            "useCreatorProperty": true,
            "weight": 75.0
        },
        "beHit": {
            "hitBloodEffect": ""
        },
        "combatLock": {
            "lockShape": "CircleLockEnemy",
            "lockType": "Avatar&Monster_Lv4"
        },
        "die": {
            "hasAnimatorDie": true,
            "dieEndTime": 0.5,
            "dieForceDisappearTime": 1.5,
            "dieDisappearEffect": "Eff_Death_Common",
            "dieShaderData": "MonsterDie",
            "NLGENBICMGM": true,
            "OLFBIHLAOAP": true,
            "LOEEPBHGMFL": true,
            "PNKDGIGFGMN": true,
            "LGFCIGKOHHD": true,
            "BNKHGHFNJFN": true
        },
        "animEvents": {
            "RamNormal": {
                "attackPattern": {
                    "$type": "ConfigAttackCircle",
                    "triggerType": "TriggerNoRepeat",
                    "born": {
                        "$type": "ConfigBornBySelf",
                        "offset": {
                            "IBKBLDAJIMA": 0.0,
                            "LKHJADIPBFL": 0.5,
                            "PJCOKIGCJOK": 0.0
                        }
                    },
                    "height": 1.7999999523162842,
                    "fanAngle": 90.0,
                    "DCMPFCIBIPA": 2.0
                },
                "attackInfo": {
                    "attackTag": "",
                    "attenuationTag": "",
                    "attenuationGroup": "default",
                    "attackProperty": {
                        "HBIOLEEGHPD": 0.30000001192092896,
                        "CCNJGLPMIEP": 0.0,
                        "bonusCriticalHurt": 100.0,
                        "strikeType": "Blunt",
                        "enBreak": 60.0,
                        "attackType": "Melee"
                    },
                    "hitPattern": {
                        "onHitEffectName": "default",
                        "hitImpulseType": "LV2"
                    }
                }
            },
            "RamDecayed": {
                "attackPattern": {
                    "$type": "ConfigAttackCircle",
                    "triggerType": "TriggerNoRepeat",
                    "born": {
                        "$type": "ConfigBornBySelf",
                        "offset": {
                            "IBKBLDAJIMA": 0.0,
                            "LKHJADIPBFL": 0.5,
                            "PJCOKIGCJOK": 0.0
                        }
                    },
                    "height": 1.7999999523162842,
                    "fanAngle": 90.0,
                    "DCMPFCIBIPA": 2.4000000953674316
                },
                "attackInfo": {
                    "attackTag": "",
                    "attenuationTag": "",
                    "attenuationGroup": "default",
                    "attackProperty": {
                        "HBIOLEEGHPD": 0.6000000238418579,
                        "CCNJGLPMIEP": 0.0,
                        "bonusCriticalHurt": 100.0,
                        "strikeType": "Blunt",
                        "enBreak": 150.0,
                        "attackType": "Melee"
                    },
                    "hitPattern": {
                        "onHitEffectName": "default",
                        "hitImpulseType": "LV3"
                    }
                }
            }
        }
    },
    "abilities": [
        {
            "abilityID": "",
            "abilityName": "Monster_Fungus_Un_Jump",
            "abilityOverride": ""
        },
        {
            "abilityID": "",
            "abilityName": "Monster_Fungus_Un_ReturnToBornManager",
            "abilityOverride": ""
        },
        {
            "abilityID": "",
            "abilityName": "Monster_Fungus_Un_Grass_HitThrowDropToGround",
            "abilityOverride": ""
        },
        {
            "abilityID": "",
            "abilityName": "Monster_Fungus_FungusStateManager",
            "abilityOverride": ""
        },
        {
            "abilityID": "",
            "abilityName": "Monster_Fungus_Un_Delta_Grass_ShootNormal",
            "abilityOverride": ""
        },
        {
            "abilityID": "",
            "abilityName": "Monster_Fungus_Un_Delta_Grass_ShootOverdose",
            "abilityOverride": ""
        },
        {
            "abilityID": "",
            "abilityName": "Monster_Fungus_Un_Delta_Grass_ShootDecayedRaptorSummon",
            "abilityOverride": ""
        },
        {
            "abilityID": "",
            "abilityName": "Monster_Fungus_Un_Delta_Grass_Steer",
            "abilityOverride": ""
        },
        {
            "abilityID": "",
            "abilityName": "Monster_Fungus_Not_Un_Gamma_Water_Mark",
            "abilityOverride": ""
        }
    ],
    "stateLayers": {
        "defaultLayer": {
            "$type": "ConfigNormalStateLayer",
            "layerIndexName": "",
            "stateIDs": {
                "Born": {
                    "$type": "ConfigMonsterStateIDInfo",
                    "animatorStates": {
                        "Born": []
                    },
                    "canSyncMove": true,
                    "resetAnimatorTriggerOnExit": [
                        "DoSkill"
                    ]
                },
                "NormalIdle": {
                    "$type": "ConfigMonsterStateIDInfo",
                    "animatorStates": {
                        "StandbyFree": [],
                        "Standby": []
                    },
                    "canDoSkill": true,
                    "canSyncMove": true,
                    "resetAnimatorTriggerOnExit": [
                        "DoSkill"
                    ],
                    "canSteer": true,
                    "autoSteer": true
                },
                "NormalMove": {
                    "$type": "ConfigMonsterStateIDInfo",
                    "animatorStates": {
                        "Walk": [
                            "Audio_Monster_Fungus_Un_Walk"
                        ]
                    },
                    "canDoSkill": true,
                    "canSyncMove": true,
                    "resetAnimatorTriggerOnExit": [
                        "DoSkill"
                    ],
                    "setAnimatorFloat": [
                        {
                            "name": "FlyMotionHor",
                            "normalizeEnd": 0.0
                        },
                        {
                            "name": "FlyMotionVer",
                            "normalizeEnd": 0.0
                        }
                    ],
                    "canSteer": true
                },
                "NormalFly": {
                    "$type": "ConfigMonsterStateIDInfo",
                    "animatorStates": {
                        "Fly": []
                    },
                    "canDoSkill": true,
                    "canSyncMove": true,
                    "resetAnimatorTriggerOnExit": [
                        "DoSkill"
                    ],
                    "setAnimatorFloat": [
                        {
                            "name": "FlyMotionHor",
                            "normalizeEnd": 0.0
                        },
                        {
                            "name": "FlyMotionVer",
                            "normalizeEnd": 0.0
                        }
                    ],
                    "canSteer": true,
                    "CANNKEADBCO": "BlendMove3D"
                },
                "BeHit": {
                    "$type": "ConfigMonsterStateIDInfo",
                    "animatorStates": {
                        "Hit_H": [
                            "Audio_Monster_Fungus_Un_HitThrow"
                        ]
                    },
                    "canSyncMove": true,
                    "resetAnimatorTriggerOnEnter": [
                        "BeHit"
                    ],
                    "resetAnimatorTriggerOnExit": [
                        "DoSkill"
                    ],
                    "KOKKPDGIOPB": true
                },
                "BeHitThrow": {
                    "$type": "ConfigMonsterStateIDInfo",
                    "animatorStates": {
                        "HitThrow": [
                            "Audio_Monster_Fungus_Un_HitThrow"
                        ],
                        "HitThrowDrop": [],
                        "HitThrowToGround": [
                            "Monster_Fungus_Un_Delta_Grass_HitThrowToGround",
                            "Audio_Monster_Fungus_Un_HitThrowToGround"
                        ]
                    },
                    "resetAnimatorTriggerOnEnter": [
                        "BeHit",
                        "HitAir2HitDrop"
                    ],
                    "resetAnimatorTriggerOnExit": [
                        "DoSkill"
                    ],
                    "remoteForceUseAnimatorVel": true
                },
                "Struggle": {
                    "$type": "ConfigMonsterStateIDInfo",
                    "animatorStates": {
                        "Struggle": []
                    },
                    "resetAnimatorTriggerOnEnter": [
                        "BeHit",
                        "HitAir2HitDrop"
                    ],
                    "resetAnimatorTriggerOnExit": [
                        "DoSkill"
                    ]
                },
                "Die": {
                    "$type": "ConfigMonsterStateIDInfo",
                    "animatorStates": {
                        "Die_BS": [
                            "Audio_Monster_Fungus_Un_Die"
                        ],
                        "Die": [
                            "Monster_Fungus_Un_Die"
                        ],
                        "AirDie": [
                            "Monster_Fungus_Un_Die"
                        ],
                        "SwimDie_BS": [],
                        "SwimDie": [
                            "Monster_Fungus_Un_Die"
                        ]
                    }
                },
                "Warning": {
                    "$type": "ConfigMonsterStateIDInfo",
                    "animatorStates": {
                        "Warning": [
                            "Audio_Monster_Fungus_Un_Warning"
                        ]
                    },
                    "canSyncMove": true,
                    "resetAnimatorTriggerOnExit": [
                        "BeHit",
                        "DoSkill"
                    ],
                    "canSteer": true
                },
                "Jump_BS": {
                    "$type": "ConfigMonsterStateIDInfo",
                    "animatorStates": {
                        "Jump_BS": [
                            "Audio_Monster_Fungus_Un_Jump_BS"
                        ]
                    },
                    "canSyncMove": true,
                    "resetAnimatorTriggerOnExit": [
                        "DoSkill"
                    ],
                    "canSteer": true,
                    "KOKKPDGIOPB": true
                },
                "JumpProcess": {
                    "$type": "ConfigMonsterStateIDInfo",
                    "animatorStates": {
                        "Launch_Loop": [],
                        "Jump_AS": [
                            "Audio_Monster_Fungus_Un_Jump_AS"
                        ],
                        "Drop_Loop": []
                    },
                    "canDoSkill": true,
                    "canSyncMove": true,
                    "resetAnimatorTriggerOnExit": [
                        "DoSkill",
                        "Launch"
                    ],
                    "canSteer": true,
                    "KOKKPDGIOPB": true
                },
                "Land_AS": {
                    "$type": "ConfigMonsterStateIDInfo",
                    "animatorStates": {
                        "Land_AS": [
                            "Audio_Monster_Fungus_Un_Jump_AS"
                        ]
                    },
                    "canSyncMove": true,
                    "resetAnimatorTriggerOnEnter": [
                        "Land",
                        "BeHit",
                        "HitAir2HitDrop"
                    ],
                    "resetAnimatorTriggerOnExit": [
                        "DoSkill",
                        "Land"
                    ],
                    "canSteer": true,
                    "KOKKPDGIOPB": true
                },
                "ChangeState": {
                    "$type": "ConfigMonsterStateIDInfo",
                    "animatorStates": {
                        "ChangeStateToOverdose": [
                            "Audio_Monster_Fungus_Un_ChangeState"
                        ],
                        "ChangeStateToDecayed": [
                            "Audio_Monster_Fungus_Un_ChangeState"
                        ]
                    },
                    "canSyncMove": true,
                    "resetAnimatorTriggerOnEnter": [
                        "BeHit"
                    ],
                    "resetAnimatorTriggerOnExit": [
                        "DoSkill"
                    ],
                    "KOKKPDGIOPB": true
                },
                "RamNormal_BS": {
                    "$type": "ConfigMonsterStateIDInfo",
                    "animatorStates": {
                        "RamNormal_BS": [
                            "Audio_Monster_Fungus_Un_Ram_BS"
                        ],
                        "RamNormal_Loop": []
                    },
                    "canSyncMove": true,
                    "resetAnimatorTriggerOnExit": [
                        "BeHit",
                        "DoSkill"
                    ],
                    "canSteer": true
                },
                "RamOverdose_BS": {
                    "$type": "ConfigMonsterStateIDInfo",
                    "animatorStates": {
                        "RamOverdose_BS": [
                            "Audio_Monster_Fungus_Un_Ram_BS"
                        ],
                        "RamOverdose_Loop": []
                    },
                    "canSyncMove": true,
                    "resetAnimatorTriggerOnExit": [
                        "BeHit",
                        "DoSkill"
                    ],
                    "canSteer": true
                },
                "RamDecayed_BS": {
                    "$type": "ConfigMonsterStateIDInfo",
                    "animatorStates": {
                        "RamDecayed_BS": [
                            "Monster_Fungus_Un_Delta_Grass_RamDecayed_BS",
                            "Audio_Monster_Fungus_Un_Ram_BS"
                        ],
                        "RamDecayed_Loop": []
                    },
                    "canSyncMove": true,
                    "resetAnimatorTriggerOnExit": [
                        "BeHit",
                        "DoSkill"
                    ],
                    "canSteer": true
                },
                "Ram": {
                    "$type": "ConfigMonsterStateIDInfo",
                    "animatorStates": {
                        "RamNormal_Attack": [
                            "Monster_Fungus_Un_Delta_Grass_RamNormal",
                            "Audio_Monster_Fungus_Un_Ram_Attack"
                        ]
                    },
                    "resetAnimatorTriggerOnExit": [
                        "BeHit",
                        "DoSkill"
                    ],
                    "canSteer": true
                },
                "Ram_AS": {
                    "$type": "ConfigMonsterStateIDInfo",
                    "animatorStates": {
                        "RamNormal_AS": [
                            "Audio_Monster_Fungus_Un_Ram_AS"
                        ],
                        "RamOverdose_Attack": [
                            "Monster_Fungus_Un_Delta_Grass_RamNormal",
                            "Audio_Monster_Fungus_Un_Ram_Attack"
                        ],
                        "RamOverdose_AS": [
                            "Audio_Monster_Fungus_Un_Ram_AS"
                        ],
                        "RamDecayed_Attack": [
                            "Monster_Fungus_Un_Delta_Grass_RamDecayed",
                            "Audio_Monster_Fungus_Un_Ram_Attack"
                        ],
                        "RamDecayed_AS": [
                            "Audio_Monster_Fungus_Un_Ram_AS"
                        ]
                    },
                    "resetAnimatorTriggerOnExit": [
                        "BeHit",
                        "DoSkill"
                    ],
                    "canSteer": true
                },
                "ShootNormal_BS": {
                    "$type": "ConfigMonsterStateIDInfo",
                    "animatorStates": {
                        "ShootNormal_BS": [
                            "Audio_Monster_Fungus_Un_Shoot_BS"
                        ],
                        "ShootNormal_Loop": []
                    },
                    "canSyncMove": true,
                    "resetAnimatorTriggerOnExit": [
                        "BeHit",
                        "DoSkill"
                    ],
                    "canSteer": true
                },
                "ShootOverdose_BS": {
                    "$type": "ConfigMonsterStateIDInfo",
                    "animatorStates": {
                        "ShootOverdose_BS": [
                            "Audio_Monster_Fungus_Un_Shoot_BS"
                        ],
                        "ShootOverdose_Loop": []
                    },
                    "canSyncMove": true,
                    "resetAnimatorTriggerOnExit": [
                        "BeHit",
                        "DoSkill"
                    ],
                    "canSteer": true
                },
                "ShootDecayed_BS": {
                    "$type": "ConfigMonsterStateIDInfo",
                    "animatorStates": {
                        "ShootDecayed_BS": [
                            "Audio_Monster_Fungus_Un_Shoot_BS"
                        ],
                        "ShootDecayed_Loop": []
                    },
                    "canSyncMove": true,
                    "resetAnimatorTriggerOnExit": [
                        "BeHit",
                        "DoSkill"
                    ],
                    "canSteer": true
                },
                "Shoot": {
                    "$type": "ConfigMonsterStateIDInfo",
                    "animatorStates": {
                        "ShootNormal_Attack": [
                            "Monster_Fungus_Un_Delta_Grass_ShootNormal",
                            "Audio_Monster_Fungus_Un_Grass_Shoot_Attack"
                        ],
                        "ShootNormal_AS": [
                            "Audio_Monster_Fungus_Un_Shoot_AS"
                        ],
                        "ShootOverdose_Attack01": [
                            "Monster_Fungus_Un_Delta_Grass_ShootOverdose",
                            "Audio_Monster_Fungus_Un_Grass_Shoot_Attack"
                        ],
                        "ShootOverdose_Attack02": [
                            "Monster_Fungus_Un_Delta_Grass_ShootOverdose",
                            "Audio_Monster_Fungus_Un_Grass_Shoot_Attack"
                        ],
                        "ShootOverdose_Attack03": [
                            "Monster_Fungus_Un_Delta_Grass_ShootOverdose",
                            "Audio_Monster_Fungus_Un_Grass_Shoot_Attack"
                        ],
                        "ShootOverdose_AS": [
                            "Audio_Monster_Fungus_Un_Shoot_AS"
                        ],
                        "ShootDecayed_Attack": [
                            "Monster_Fungus_Un_Delta_Grass_ShootDecayedRaptorSummon",
                            "Audio_Monster_Fungus_Un_Grass_Shoot_Attack"
                        ],
                        "ShootDecayed_AS": [
                            "Audio_Monster_Fungus_Un_Shoot_AS"
                        ]
                    },
                    "canSyncMove": true,
                    "resetAnimatorTriggerOnExit": [
                        "BeHit",
                        "DoSkill"
                    ],
                    "canSteer": true
                },
                "Dance": {
                    "$type": "ConfigMonsterStateIDInfo",
                    "animatorStates": {
                        "Dance": [
                            "Audio_Monster_Fungus_Un_Dance"
                        ]
                    },
                    "canDoSkill": true,
                    "canSyncMove": true,
                    "resetAnimatorTriggerOnExit": [
                        "BeHit",
                        "DoSkill"
                    ],
                    "canSteer": true
                },
                "Tease": {
                    "$type": "ConfigMonsterStateIDInfo",
                    "animatorStates": {
                        "Tease": [
                            "Audio_Monster_Fungus_Un_Tease"
                        ]
                    },
                    "canDoSkill": true,
                    "canSyncMove": true,
                    "resetAnimatorTriggerOnExit": [
                        "BeHit",
                        "DoSkill"
                    ],
                    "canSteer": true
                },
                "Absorb": {
                    "$type": "ConfigMonsterStateIDInfo",
                    "animatorStates": {
                        "Absorb": [
                            "Monster_Fungus_Un_Absorb",
                            "Audio_Monster_Fungus_Un_Absorb"
                        ]
                    },
                    "canDoSkill": true,
                    "canSyncMove": true,
                    "resetAnimatorTriggerOnExit": [
                        "BeHit",
                        "DoSkill"
                    ],
                    "canSteer": true
                },
                "Practice": {
                    "$type": "ConfigMonsterStateIDInfo",
                    "animatorStates": {
                        "Practice": [
                            "Audio_Monster_Fungus_Un_Practice"
                        ]
                    },
                    "canDoSkill": true,
                    "canSyncMove": true,
                    "resetAnimatorTriggerOnExit": [
                        "BeHit",
                        "DoSkill"
                    ],
                    "canSteer": true
                },
                "ReturnToBorn": {
                    "$type": "ConfigMonsterStateIDInfo",
                    "animatorStates": {
                        "ReturnToBorn_BS": [
                            "Monster_Fungus_Un_ReturnToBorn_BS",
                            "Audio_Monster_Fungus_Un_ReturnToBorn_BS"
                        ],
                        "ReturnToBorn_Loop": [],
                        "ReturnToBorn_AS": [
                            "Monster_Fungus_Un_ReturnToBorn_AS",
                            "Audio_Monster_Fungus_Un_ReturnToBorn_AS"
                        ]
                    },
                    "cullingModelAlwaysAnimate": true,
                    "resetAnimatorTriggerOnExit": [
                        "BeHit",
                        "DoSkill"
                    ]
                }
            }
        }
    },
    "billboard": {
        "$type": "ConfigCombatBillboard",
        "attachPoint": "BillboardAttach",
        "offset": {
            "y": 0.5
        },
        "radiusOffset": 1.0,
        "enableSelfAdapt": true,
        "showHPBar": true
    },
    "initialPoses": {
        "Default": {
            "initialPoseID": 101
        },
        "Dance": {
            "initialPoseID": 102,
            "initialPoseParams": {
                "boolParams": {
                    "Dance": "true"
                }
            }
        },
        "Tease": {
            "initialPoseID": 103,
            "initialPoseParams": {
                "boolParams": {
                    "Tease": "true"
                }
            }
        },
        "Absorb": {
            "initialPoseID": 104,
            "initialPoseParams": {
                "boolParams": {
                    "Absorb": "true"
                }
            }
        },
        "Practice": {
            "initialPoseID": 105,
            "initialPoseParams": {
                "boolParams": {
                    "Practice": "true"
                }
            }
        },
        "Decay": {
            "initialPoseID": 121,
            "initialPoseParams": {
                "intParams": {
                    "FungusState": "2"
                }
            }
        }
    },
    "aibeta": {
        "enable": true,
        "moveSetting": {
            "navMeshAgentName": "Undead01"
        },
        "sensing": {
            "settings": {
                "DefaultSetting": {
                    "viewRange": 22.0,
                    "feelRange": 8.75
                }
            },
            "templates": {
                "DefaultTemplate": {
                    "DefaultPoses": "DefaultSetting"
                }
            }
        },
        "threat": {
            "clearThreatTargetDistance": 30.0,
            "clearThreatEdgeDistance": 5.0,
            "clearThreatTimerByDistance": 2.0,
            "viewAttenuation": [
                {
                    "x": 12.0,
                    "y": 1.0
                },
                {
                    "x": 20.0,
                    "y": 0.5
                }
            ]
        },
        "defendArea": {
            "defendRange": 50.0
        },
        "fly": {
            "enable": true,
            "floatingPoses": [
                201,
                211,
                221,
                501,
                511,
                521
            ]
        },
        "skills": {
            "100": {
                "name": "OnAlert",
                "skillType": "OnAlert",
                "faceTarget": true,
                "publicCDGroup": "",
                "triggerGCD": false,
                "stateIDs": [
                    "Warning"
                ],
                "skillQueryingTime": 3.0,
                "flagTargetReachable": "10",
                "flagSelfOnTemplateCollider": "01",
                "flagSelfInZone": "10",
                "flagTargetInZone": "11"
            },
            "102": {
                "name": "Dance",
                "skillType": "Free",
                "castCondition": {
                    "pose": [
                        102
                    ]
                },
                "cd": 10.0,
                "cdUpperRange": 10.0,
                "initialCD": 5.0,
                "initialCDUpperRange": 10.0,
                "publicCDGroup": "",
                "triggerGCD": false,
                "stateIDs": [
                    "Dance"
                ],
                "skillQueryingTime": 3.0,
                "flagTargetReachable": "10",
                "flagSelfOnTemplateCollider": "01",
                "flagSelfInZone": "10",
                "flagTargetInZone": "11"
            },
            "103": {
                "name": "Tease",
                "skillType": "Free",
                "castCondition": {
                    "pose": [
                        103
                    ]
                },
                "cd": 10.0,
                "cdUpperRange": 10.0,
                "initialCD": 5.0,
                "initialCDUpperRange": 10.0,
                "publicCDGroup": "",
                "triggerGCD": false,
                "stateIDs": [
                    "Tease"
                ],
                "skillQueryingTime": 3.0,
                "flagTargetReachable": "10",
                "flagSelfOnTemplateCollider": "01",
                "flagSelfInZone": "10",
                "flagTargetInZone": "11"
            },
            "104": {
                "name": "Absorb",
                "skillType": "Free",
                "castCondition": {
                    "pose": [
                        104
                    ]
                },
                "cd": 10.0,
                "cdUpperRange": 10.0,
                "initialCD": 5.0,
                "initialCDUpperRange": 10.0,
                "publicCDGroup": "",
                "triggerGCD": false,
                "stateIDs": [
                    "Absorb"
                ],
                "skillQueryingTime": 3.0,
                "flagTargetReachable": "10",
                "flagSelfOnTemplateCollider": "01",
                "flagSelfInZone": "10",
                "flagTargetInZone": "11"
            },
            "105": {
                "name": "Practice",
                "skillType": "Free",
                "castCondition": {
                    "pose": [
                        105
                    ]
                },
                "cd": 10.0,
                "cdUpperRange": 10.0,
                "initialCD": 5.0,
                "initialCDUpperRange": 10.0,
                "publicCDGroup": "",
                "triggerGCD": false,
                "stateIDs": [
                    "Practice"
                ],
                "skillQueryingTime": 3.0,
                "flagTargetReachable": "10",
                "flagSelfOnTemplateCollider": "01",
                "flagSelfInZone": "10",
                "flagTargetInZone": "11"
            },
            "301": {
                "name": "RamNormal",
                "castCondition": {
                    "pose": [
                        301
                    ],
                    "pickRangeMax": 2.0
                },
                "cd": 5.0,
                "initialCD": 5.0,
                "publicCDGroup": "",
                "stateIDs": [
                    "Ram",
                    "RamNormal_BS"
                ],
                "flagTargetReachable": "11",
                "flagSelfOnTemplateCollider": "01",
                "flagSelfInZone": "11",
                "flagTargetInZone": "11"
            },
            "311": {
                "name": "RamOverdose",
                "castCondition": {
                    "pose": [
                        311
                    ],
                    "pickRangeMax": 2.0
                },
                "cd": 5.0,
                "initialCD": 5.0,
                "publicCDGroup": "",
                "stateIDs": [
                    "Ram",
                    "RamOverdose_BS"
                ],
                "flagTargetReachable": "11",
                "flagSelfOnTemplateCollider": "01",
                "flagSelfInZone": "11",
                "flagTargetInZone": "11"
            },
            "321": {
                "name": "RamDecayed",
                "castCondition": {
                    "pose": [
                        321
                    ],
                    "pickRangeMax": 2.0
                },
                "cd": 5.0,
                "publicCDGroup": "",
                "stateIDs": [
                    "Ram",
                    "RamDecayed_BS"
                ],
                "flagTargetReachable": "11",
                "flagSelfOnTemplateCollider": "01",
                "flagSelfInZone": "11",
                "flagTargetInZone": "11"
            },
            "501": {
                "name": "ShootNormal",
                "castCondition": {
                    "pose": [
                        501
                    ],
                    "needReInitCD": true,
                    "pickRangeMax": 12.0,
                    "pickRangeYMax": 8.0,
                    "pickRangeYMin": 0.699999988079071,
                    "globalValues": [
                        {
                            "min": 0.25,
                            "max": 1.5
                        }
                    ],
                    "EGOPMPIMDDJ": "RangeXZ_Y",
                    "GMHBCPCABGE": {
                        "CNKLPKFGBJI": 16.0,
                        "JOBPJGPBHKG": 8.0
                    }
                },
                "cd": 5.0,
                "cdUpperRange": 10.0,
                "initialCD": 1.0,
                "initialCDUpperRange": 2.5,
                "publicCDGroup": "",
                "stateIDs": [
                    "Shoot",
                    "ShootNormal_BS"
                ],
                "flagTargetReachable": "11",
                "flagSelfOnTemplateCollider": "01",
                "flagSelfInZone": "11",
                "flagTargetInZone": "11"
            },
            "511": {
                "name": "ShootOverdose",
                "castCondition": {
                    "pose": [
                        511
                    ],
                    "needReInitCD": true,
                    "pickRangeMax": 12.0,
                    "pickRangeYMax": 8.0,
                    "pickRangeYMin": 0.699999988079071,
                    "globalValues": [
                        {
                            "min": 0.25,
                            "max": 1.25
                        }
                    ],
                    "EGOPMPIMDDJ": "RangeXZ_Y",
                    "GMHBCPCABGE": {
                        "CNKLPKFGBJI": 16.0,
                        "JOBPJGPBHKG": 8.0
                    }
                },
                "cd": 5.0,
                "cdUpperRange": 3.0,
                "initialCD": 0.5,
                "initialCDUpperRange": 1.5,
                "publicCDGroup": "",
                "stateIDs": [
                    "Shoot",
                    "ShootOverdose_BS"
                ],
                "flagTargetReachable": "11",
                "flagSelfOnTemplateCollider": "01",
                "flagSelfInZone": "11",
                "flagTargetInZone": "11"
            },
            "521": {
                "name": "ShootDecayed",
                "castCondition": {
                    "pose": [
                        521
                    ],
                    "needReInitCD": true,
                    "pickRangeMax": 50.0,
                    "pickRangeYMax": 8.0,
                    "pickRangeYMin": 0.699999988079071,
                    "globalValues": [
                        {
                            "min": 0.25,
                            "max": 9.25
                        }
                    ],
                    "EGOPMPIMDDJ": "RangeXZ_Y",
                    "GMHBCPCABGE": {
                        "CNKLPKFGBJI": 50.0,
                        "JOBPJGPBHKG": 8.0
                    }
                },
                "cd": 1.0,
                "cdUpperRange": 6.0,
                "initialCD": 1.0,
                "initialCDUpperRange": 6.0,
                "publicCDGroup": "",
                "stateIDs": [
                    "Shoot",
                    "ShootDecayed_BS"
                ],
                "flagTargetReachable": "11",
                "flagSelfOnTemplateCollider": "01",
                "flagSelfInZone": "11",
                "flagTargetInZone": "11"
            }
        },
        "skillGCD": 1.5,
        "returnToBornTactic": {
            "enable": true,
            "defaultSetting": {
                "spacial": true
            }
        },
        "meleeChargeTactic": {
            "enable": true,
            "condition": {
                "pose": [
                    301,
                    311,
                    321
                ]
            },
            "defaultSetting": {
                "speedLevel": 1,
                "startDistanceMin": 10.0,
                "startDistanceMax": 50.0,
                "stopDistance": 9.0,
                "innerDistance": 10.0,
                "speedLevelInner": 2
            },
            "specification": {
                "321": {
                    "startDistanceMin": 3.0,
                    "startDistanceMax": 50.0,
                    "stopDistance": 3.0,
                    "innerDistance": 6.0,
                    "speedLevelInner": 2
                }
            }
        },
        "facingMoveTactic": {
            "enable": true,
            "condition": {
                "pose": [
                    301,
                    311,
                    321
                ]
            },
            "defaultSetting": {
                "speedLevel": 2,
                "rangeMin": 4.0,
                "rangeMax": 10.0,
                "restTimeMin": 0.0,
                "restTimeMax": 0.0,
                "facingMoveWeight": {
                    "stop": 0.0,
                    "forward": 0.5,
                    "back": 0.0,
                    "left": 0.0,
                    "right": 0.0
                },
                "BBACFDEOBDP": "1111",
                "HANHJBCACAC": "1111"
            }
        },
        "spacialChaseTactic": {
            "enable": true,
            "condition": {
                "pose": [
                    521
                ]
            },
            "defaultSetting": {
                "speedLevel": 2,
                "chaseStartDistance": 11.0,
                "chaseStopDistance": 8.0,
                "yOffsetMin": 0.5,
                "yOffsetMax": 1.5,
                "KLJCLEGPBHP": [
                    {
                        "min": 0.5,
                        "max": 3.0
                    }
                ]
            },
            "specification": {
                "521": {
                    "speedLevel": 2,
                    "chaseStartDistance": 6.0,
                    "chaseStopDistance": 6.0,
                    "yOffsetMin": 0.5,
                    "yOffsetMax": 1.0,
                    "KLJCLEGPBHP": [
                        {
                            "min": 0.5,
                            "max": 3.0
                        }
                    ]
                }
            }
        },
        "BIDFKACOANG": {
            "enable": true,
            "condition": {
                "pose": [
                    501,
                    511,
                    521
                ]
            },
            "defaultSetting": {
                "speedLevel": 2,
                "DEHEIMMPHDI": 4.0,
                "EBONJIMHCPK": 8.0,
                "restTimeMin": 0.0,
                "facingMoveTurnInterval": 1.5,
                "facingMoveMinAvoidanceVelecity": 0.5,
                "obstacleDetectRange": 1.5,
                "MJAOKJCFBHP": 3.0,
                "FLKGGDIJOJI": {
                    "stop": 0.0,
                    "forward": 0.8999999761581421,
                    "IALKABGPIDA": 0.0,
                    "FJOJFPHCABP": 4.0,
                    "AABINCLFOBD": 4.0,
                    "HKDENCMEBCN": 8.0,
                    "PGAKGDHIBPG": 4.0,
                    "PDHJPCALOOJ": 8.0,
                    "PGIDODLFNHA": 0.0,
                    "DLJOJAJDMPH": 0.0,
                    "GMCIECDDLEH": 1.5,
                    "KGMDEPLONFG": 3.0,
                    "OGHCPKHBGJL": 1.0,
                    "DLCIBHJCNEA": 0.0,
                    "PMNPOAIDPPF": 4.0
                },
                "KLJCLEGPBHP": [
                    {
                        "min": 0.5,
                        "max": 3.0
                    }
                ],
                "FBINFBDGNAJ": true
            },
            "specification": {
                "511": {
                    "speedLevel": 2,
                    "DEHEIMMPHDI": 3.0,
                    "EBONJIMHCPK": 6.0,
                    "restTimeMin": 0.0,
                    "restTimeMax": 0.0,
                    "facingMoveTurnInterval": 1.5,
                    "facingMoveMinAvoidanceVelecity": 0.10000000149011612,
                    "obstacleDetectRange": 1.5,
                    "MJAOKJCFBHP": 3.0,
                    "FLKGGDIJOJI": {
                        "stop": 0.0,
                        "forward": 0.5,
                        "GBPLNAKAJOG": 1.5,
                        "FJOJFPHCABP": 4.0,
                        "EOLFLAADICG": 1.5,
                        "IIDBBAADGFF": 4.0,
                        "AABINCLFOBD": 2.5,
                        "HKDENCMEBCN": 8.0,
                        "PGAKGDHIBPG": 2.5,
                        "PDHJPCALOOJ": 8.0,
                        "GMCIECDDLEH": 0.5,
                        "KGMDEPLONFG": 1.0,
                        "OGHCPKHBGJL": 1.5,
                        "DLCIBHJCNEA": 0.5,
                        "PMNPOAIDPPF": 2.0
                    },
                    "KLJCLEGPBHP": [
                        {
                            "min": 0.5,
                            "max": 3.0
                        }
                    ],
                    "FBINFBDGNAJ": true
                }
            }
        }
    },
    "inputKeys": [
        {
            "keyID": 301,
            "inputKeyCode": 257,
            "abilityName": ""
        },
        {
            "keyID": 501,
            "inputKeyCode": 258,
            "abilityName": ""
        },
        {
            "keyID": 311,
            "inputKeyCode": 259,
            "abilityName": ""
        },
        {
            "keyID": 511,
            "inputKeyCode": 260,
            "abilityName": ""
        },
        {
            "keyID": 321,
            "inputKeyCode": 261,
            "abilityName": ""
        },
        {
            "keyID": 521,
            "inputKeyCode": 262,
            "abilityName": ""
        },
        {
            "keyID": 102,
            "inputKeyCode": 263,
            "abilityName": ""
        },
        {
            "keyID": 103,
            "inputKeyCode": 264,
            "abilityName": ""
        },
        {
            "keyID": 104,
            "inputKeyCode": 265,
            "abilityName": ""
        },
        {
            "keyID": 9997,
            "inputKeyCode": 266,
            "abilityName": ""
        },
        {
            "keyID": 9998,
            "inputKeyCode": 267,
            "abilityName": ""
        },
        {
            "keyID": 9999,
            "inputKeyCode": 268,
            "abilityName": ""
        }
    ],
    "move": {
        "$type": "ConfigAnimatorMove",
        "JOMDICJAIPD": [
            {
                "PGCNADDBDAE": 5.0,
                "ELDDGPIPLNH": "DownToGroundAndWaterOnlyInAir",
                "JLGMAAACDIF": ""
            }
        ],
        "facingMove": "ForwardBackward",
        "MGINFMAIBMC": "AirBlend3D",
        "monsterSizeType": "SlimeType",
        "DOPFNDGDHLK": [
            "Launch_Loop"
        ],
        "PMGLKDCEPOI": [
            "Drop_Loop"
        ],
        "JPPHCOMAPME": true
    },
    "audio": {
        "CBJGDOAHMDC": "",
        "animAudio": {
            "onTransitionIn": [
                {
                    "currentStateName": "ShootNormal_Loop",
                    "audioEvent": {
                        "text": "Play_sfx_monster_Fungus_Un_shoot_Loop"
                    }
                },
                {
                    "currentStateName": "ShootDecayed_Loop",
                    "audioEvent": {
                        "text": "Play_sfx_monster_Fungus_Un_shoot_Loop"
                    }
                },
                {
                    "currentStateName": "ShootOverdose_Loop",
                    "audioEvent": {
                        "text": "Play_sfx_monster_Fungus_Un_shoot_Loop"
                    }
                },
                {
                    "currentStateName": "RamNormal_Loop",
                    "audioEvent": {
                        "text": "Play_sfx_monster_Fungus_Un_ram_Loop"
                    }
                },
                {
                    "currentStateName": "RamDecayed_Loop",
                    "audioEvent": {
                        "text": "Play_sfx_monster_Fungus_Un_ram_Loop"
                    }
                },
                {
                    "currentStateName": "RamOverdose_Loop",
                    "audioEvent": {
                        "text": "Play_sfx_monster_Fungus_Un_ram_Loop"
                    }
                }
            ],
            "onTransitionOut": [
                {
                    "currentStateName": "Practice",
                    "audioEvent": {
                        "text": "Stop_sfx_monster_Fungus_Un_practice"
                    }
                },
                {
                    "currentStateName": "Absorb",
                    "audioEvent": {
                        "text": "Stop_sfx_monster_Fungus_Un_absorb"
                    }
                },
                {
                    "currentStateName": "Tease",
                    "audioEvent": {
                        "text": "Stop_sfx_monster_Fungus_Un_tease"
                    }
                },
                {
                    "currentStateName": "Dance",
                    "audioEvent": {
                        "text": "Stop_sfx_monster_Fungus_Un_absorb"
                    }
                },
                {
                    "currentStateName": "ShootNormal_Loop",
                    "audioEvent": {
                        "text": "Stop_sfx_monster_Fungus_Un_shoot_Loop"
                    }
                },
                {
                    "currentStateName": "ShootDecayed_Loop",
                    "audioEvent": {
                        "text": "Stop_sfx_monster_Fungus_Un_shoot_Loop"
                    }
                },
                {
                    "currentStateName": "ShootOverdose_Loop",
                    "audioEvent": {
                        "text": "Stop_sfx_monster_Fungus_Un_shoot_Loop"
                    }
                },
                {
                    "currentStateName": "RamNormal_Loop",
                    "audioEvent": {
                        "text": "Stop_sfx_monster_Fungus_Un_ram_Loop"
                    }
                },
                {
                    "currentStateName": "RamDecayed_Loop",
                    "audioEvent": {
                        "text": "Stop_sfx_monster_Fungus_Un_ram_Loop"
                    }
                },
                {
                    "currentStateName": "RamOverdose_Loop",
                    "audioEvent": {
                        "text": "Stop_sfx_monster_Fungus_Un_ram_Loop"
                    }
                }
            ]
        }
    }
}